<svg xmlns="http://www.w3.org/2000/svg" width="100" height="100" viewBox="0 0 100 100">
  <g id="Group_17" data-name="Group 17" transform="translate(-136 -509)">
    <g id="Oval_Copy_2" data-name="Oval Copy 2" transform="translate(136 509)" fill="#fff" stroke="#cfcfcf" stroke-miterlimit="10" stroke-width="6">
      <circle cx="50" cy="50" r="50" stroke="none"/>
      <circle cx="50" cy="50" r="47" fill="none"/>
    </g>
    <g id="Group_3_Copy_2" data-name="Group 3 Copy 2" transform="translate(143 516)">
      <g id="Oval_Copy" data-name="Oval Copy" fill="#2da2a7" stroke="#fff" stroke-miterlimit="10" stroke-width="6">
        <circle cx="43.5" cy="43.5" r="43.5" stroke="none"/>
        <circle cx="43.5" cy="43.5" r="40.5" fill="none"/>
      </g>
      <path id="Triangle" d="M19,0,38,38H0Z" transform="translate(59.543 34.189) rotate(150)" fill="#fff"/>
    </g>
    <g id="Group_3_Copy_3" data-name="Group 3 Copy 3" transform="translate(161 533)">
      <ellipse id="Oval_Copy-2" data-name="Oval Copy" cx="25" cy="26" rx="25" ry="26" transform="translate(0 0.5)" fill="#fff"/>
    </g>
    <g id="plan" transform="translate(172 542)" opacity="0.6">
      <path id="Fill_1" data-name="Fill 1" d="M23.4,33H2.6A2.623,2.623,0,0,1,0,30.36V4.617A2.622,2.622,0,0,1,2.6,1.979H6.317L7.691.482A1.691,1.691,0,0,1,8.784,0h8.429a1.7,1.7,0,0,1,1.094.482l1.374,1.5H23.4A2.623,2.623,0,0,1,26,4.617V30.36A2.624,2.624,0,0,1,23.4,33ZM3.936,5.279a.656.656,0,0,0-.652.66v23.1a.656.656,0,0,0,.652.66H22.064a.656.656,0,0,0,.65-.66V5.938a.656.656,0,0,0-.65-.66H19.683l-1.376,1.5a1.7,1.7,0,0,1-1.094.482H8.786a1.7,1.7,0,0,1-1.094-.482l-1.374-1.5Z"/>
      <path id="Fill_3" data-name="Fill 3" d="M6.649,0H.351A.344.344,0,0,0,0,.333V1.665A.345.345,0,0,0,.351,2h6.3A.345.345,0,0,0,7,1.665V.333A.344.344,0,0,0,6.649,0" transform="translate(11 24)"/>
      <path id="Fill_5" data-name="Fill 5" d="M6.649,0H.351A.344.344,0,0,0,0,.333V1.665A.345.345,0,0,0,.351,2h6.3A.345.345,0,0,0,7,1.665V.333A.344.344,0,0,0,6.649,0" transform="translate(11 18)"/>
      <path id="Fill_7" data-name="Fill 7" d="M6.649,0H.351A.344.344,0,0,0,0,.333V1.667A.344.344,0,0,0,.351,2h6.3A.344.344,0,0,0,7,1.667V.333A.344.344,0,0,0,6.649,0" transform="translate(11 13)"/>
      <path id="Fill_9" data-name="Fill 9" d="M1.667,0H.333A.333.333,0,0,0,0,.333V1.665A.335.335,0,0,0,.333,2H1.667A.336.336,0,0,0,2,1.665V.333A.335.335,0,0,0,1.667,0" transform="translate(8 24)"/>
      <path id="Fill_11" data-name="Fill 11" d="M1.667,0H.333A.333.333,0,0,0,0,.333V1.665A.335.335,0,0,0,.333,2H1.667A.336.336,0,0,0,2,1.665V.333A.335.335,0,0,0,1.667,0" transform="translate(8 18)"/>
      <path id="Fill_13" data-name="Fill 13" d="M1.667,0H.333A.333.333,0,0,0,0,.333V1.667A.333.333,0,0,0,.333,2H1.667A.335.335,0,0,0,2,1.667V.333A.335.335,0,0,0,1.667,0" transform="translate(8 13)"/>
    </g>
  </g>
</svg>
