{
  "serviceUrl": "https://www.asvabprogram.com",
  "ssoUrl": "https://api.careersinthemilitary.com",
  "citmBaseUrl": "https://api.careersinthemilitary.com",
  "imageUrl": "https://prod-media.asvabprogram.com/",
  "ctmImageUrl": "https://media.careersinthemilitary.com/citm-images/",
  "awsApiUrl": {
    "dev": "https://88e82niqyf.execute-api.us-east-1.amazonaws.com",
    "stg": "https://6elerhxelc.execute-api.us-east-1.amazonaws.com/Stage",
    "prod": "https://89sifzhed3.execute-api.us-east-1.amazonaws.com"
  },
  "banner": "false",
  "disableLogin": "false"
}