{
  "serviceUrl": "http://localhost:8080",
  "ssoUrl": "http://localhost:8080/CITM",
  "citmBaseUrl": "http://localhost:8080/CITM",
  "imageUrl": "https://dev-media.asvabprogram.com/",
  "ctmImageUrl": "https://dev-media.careersinthemilitary.com/citm-images/",
  "awsApiUrl": {
    "dev": "https://88e82niqyf.execute-api.us-east-1.amazonaws.com",
    "stg": "https://6elerhxelc.execute-api.us-east-1.amazonaws.com/Stage",
    "prod": "https://89sifzhed3.execute-api.us-east-1.amazonaws.com"
  },
  "banner": "false",
  "disableLogin": "false"
}