<svg xmlns="http://www.w3.org/2000/svg" width="22" height="22" viewBox="0 0 22 22">
  <path id="explore" d="M20.1,22a.725.725,0,0,1-.526-.195l-.592-.59-5.44-5.328a8.658,8.658,0,1,1,3.894-7.22A8.567,8.567,0,0,1,15.806,13.7l5.287,5.179.157.156.554.55a.718.718,0,0,1,.2.524,1.918,1.918,0,0,1-.624,1.273A1.94,1.94,0,0,1,20.1,22ZM8.5,3A5.5,5.5,0,1,0,14,8.5,5.506,5.506,0,0,0,8.5,3Z" transform="translate(0 0)" fill="#231f20" opacity="0.6"/>
</svg>
