<svg xmlns="http://www.w3.org/2000/svg" width="14.7" height="14.7" viewBox="0 0 14.7 14.7">
  <g id="edit" transform="translate(-0.111 -0.846)">
    <path id="Fill_1" data-name="Fill 1" d="M.493,5.261,0,7.645a.206.206,0,0,0,.24.24L2.628,7.4l.1-.056L7.859,2.213a.1.1,0,0,0,0-.145L5.821.031a.1.1,0,0,0-.145,0L.549,5.157c-.019.036-.036.069-.056.1" transform="translate(4.521 3.248)" fill="#2f2a6a"/>
    <path id="Fill_3" data-name="Fill 3" d="M12.936,7.35h-.882a.294.294,0,0,0-.294.294V11.76H1.47V1.47H4.851a.294.294,0,0,0,.294-.294V.294A.294.294,0,0,0,4.851,0H.735A.735.735,0,0,0,0,.735V12.5a.735.735,0,0,0,.735.734h11.76a.735.735,0,0,0,.735-.734V7.644a.294.294,0,0,0-.294-.294" transform="translate(0.111 2.316)" fill="#2f2a6a"/>
    <path id="Fill_5" data-name="Fill 5" d="M3.3,1.606,1.845.15a.517.517,0,0,0-.728,0L.043,1.225a.148.148,0,0,0,0,.208L2.018,3.408a.148.148,0,0,0,.208,0L3.3,2.334a.515.515,0,0,0,0-.728" transform="translate(11.361 0.846)" fill="#2f2a6a"/>
  </g>
</svg>
