<?xml version="1.0" encoding="utf-8"?>
<!-- Generator: Adobe Illustrator 25.0.0, SVG Export Plug-In . SVG Version: 6.00 Build 0)  -->
<svg version="1.1" id="Group_4" xmlns="http://www.w3.org/2000/svg" xmlns:xlink="http://www.w3.org/1999/xlink" x="0px" y="0px"
	 viewBox="0 0 52.5 52.5" style="enable-background:new 0 0 52.5 52.5;" xml:space="preserve">
<style type="text/css">
	.st0{fill:#FFF7F7;}
</style>
<g>
	<circle id="svg_1" cx="26.2" cy="26.3" r="26.3"/>
	<path class="st0" d="M38.9,25.3L20.4,14.6c-0.3-0.2-0.8-0.2-1.1,0c-0.3,0.2-0.6,0.6-0.6,1V37c0,0.4,0.2,0.8,0.6,1
		c0.2,0.1,0.4,0.1,0.6,0.1c0.2,0,0.4,0,0.6-0.1l18.5-10.7c0.3-0.2,0.6-0.6,0.6-1C39.5,25.9,39.3,25.5,38.9,25.3z"/>
</g>
</svg>
